d:\Java_Learnging\EPAM\Capstone_project\API\src\main\java\uz\app\banking\dto\ClientSaveRespDTO.java
d:\Java_Learnging\EPAM\Capstone_project\API\src\main\java\uz\app\banking\security\services\UserDetailsService.java
d:\Java_Learnging\EPAM\Capstone_project\API\src\main\java\uz\app\banking\dto\EmployeeDTO.java
d:\Java_Learnging\EPAM\Capstone_project\API\src\main\java\uz\app\banking\dto\UserDTO.java
d:\Java_Learnging\EPAM\Capstone_project\API\src\main\java\uz\app\banking\entities\User.java
d:\Java_Learnging\EPAM\Capstone_project\API\src\main\java\uz\app\banking\security\controllers\ProtectedResourceController.java
d:\Java_Learnging\EPAM\Capstone_project\API\src\main\java\uz\app\banking\controllers\EmployeeController.java
d:\Java_Learnging\EPAM\Capstone_project\API\src\main\java\uz\app\banking\security\controllers\AuthController.java
d:\Java_Learnging\EPAM\Capstone_project\API\src\main\java\uz\app\banking\services\UserService.java
d:\Java_Learnging\EPAM\Capstone_project\API\src\main\java\uz\app\banking\dto\SavingResponseDTO.java
d:\Java_Learnging\EPAM\Capstone_project\API\src\main\java\uz\app\banking\controllers\ClientController.java
d:\Java_Learnging\EPAM\Capstone_project\API\src\main\java\uz\app\banking\dto\ClientSaveReqDTO.java
d:\Java_Learnging\EPAM\Capstone_project\API\src\main\java\uz\app\banking\entities\Branch.java
d:\Java_Learnging\EPAM\Capstone_project\API\src\main\java\uz\app\banking\repositories\ClientRepository.java
d:\Java_Learnging\EPAM\Capstone_project\API\src\main\java\uz\app\banking\security\dto\RegisterResponse.java
d:\Java_Learnging\EPAM\Capstone_project\API\src\main\java\uz\app\banking\security\dto\RegisterRequest.java
d:\Java_Learnging\EPAM\Capstone_project\API\src\main\java\uz\app\banking\entities\Client.java
d:\Java_Learnging\EPAM\Capstone_project\API\src\main\java\uz\app\banking\repositories\UserRepository.java
d:\Java_Learnging\EPAM\Capstone_project\API\src\main\java\uz\app\banking\adapters\DocTypeConverter.java
d:\Java_Learnging\EPAM\Capstone_project\API\src\main\java\uz\app\banking\security\util\JwtUtil.java
d:\Java_Learnging\EPAM\Capstone_project\API\src\main\java\uz\app\banking\security\dto\LoginResponse.java
d:\Java_Learnging\EPAM\Capstone_project\API\src\main\java\uz\app\banking\dto\BranchDTO.java
d:\Java_Learnging\EPAM\Capstone_project\API\src\main\java\uz\app\banking\security\filters\AuthenticationFilter.java
d:\Java_Learnging\EPAM\Capstone_project\API\src\main\java\uz\app\banking\services\ClientService.java
d:\Java_Learnging\EPAM\Capstone_project\API\src\main\java\uz\app\banking\adapters\CountryConverter.java
d:\Java_Learnging\EPAM\Capstone_project\API\src\main\java\uz\app\banking\dto\ClientDTO.java
d:\Java_Learnging\EPAM\Capstone_project\API\src\main\java\uz\app\banking\repositories\EmployeeRepository.java
d:\Java_Learnging\EPAM\Capstone_project\API\src\main\java\uz\app\banking\references\Country.java
d:\Java_Learnging\EPAM\Capstone_project\API\src\main\java\uz\app\banking\references\DocType.java
d:\Java_Learnging\EPAM\Capstone_project\API\src\main\java\uz\app\banking\entities\Employee.java
d:\Java_Learnging\EPAM\Capstone_project\API\src\main\java\uz\app\banking\security\dto\LoginRequest.java
d:\Java_Learnging\EPAM\Capstone_project\API\src\main\java\uz\app\banking\dto\UserInfoDTO.java
d:\Java_Learnging\EPAM\Capstone_project\API\src\main\java\uz\app\banking\controllers\UserController.java
d:\Java_Learnging\EPAM\Capstone_project\API\src\main\java\uz\app\banking\security\config\SecurityConfig.java
d:\Java_Learnging\EPAM\Capstone_project\API\src\main\java\uz\app\banking\config\UserPoliciesConfig.java
d:\Java_Learnging\EPAM\Capstone_project\API\src\main\java\uz\app\banking\repositories\BranchRepository.java
d:\Java_Learnging\EPAM\Capstone_project\API\src\main\java\uz\app\banking\services\EmployeeService.java
d:\Java_Learnging\EPAM\Capstone_project\API\src\main\java\uz\app\banking\App.java
d:\Java_Learnging\EPAM\Capstone_project\API\src\main\java\uz\app\banking\references\UserType.java
